[2016.07.24 21:05:26] Launched version: 9056, alpha: [FALSE], beta: 0, debug mode: [FALSE], test dc: [FALSE]
[2016.07.24 21:05:26] Executable dir: C:/Users/BurakKaan/Desktop/, name: Telegram.exe
[2016.07.24 21:05:26] Initial working dir: C:/Users/BurakKaan/Desktop/
[2016.07.24 21:05:26] Working dir: C:/Users/BurakKaan/Desktop/
[2016.07.24 21:05:26] Arguments: "C:\Users\BurakKaan\Desktop\Telegram.exe"
[2016.07.24 21:05:26] Logs started
[2016.07.24 21:05:26] Connecting local socket to Global\b6f4a4bff0f71ab3907807fe25544384-{87A94AB0-E370-4cde-98D3-ACC110C5967D}...
[2016.07.24 21:05:26] This is the only instance of Telegram, starting server and app...
[2016.07.24 21:05:26] Moved logging from 'log_start1.txt' to 'C:/Users/BurakKaan/Desktop/log.txt'!
[2016.07.24 21:05:26] Old start log 'log_start0.txt' found, deleted: [TRUE]
[2016.07.24 21:05:26] Opened 'C:/Users/BurakKaan/Desktop/tdata/working' for reading, the previous Telegram Desktop launch was not finished properly :( Crash log size: 0
[2016.07.24 21:05:26] App Info: reading settings...
[2016.07.24 21:05:26] App Info: reading encrypted settings...
[2016.07.24 21:05:27] App Info: reading map...
[2016.07.24 21:05:27] App Info: reading encrypted map...
[2016.07.24 21:05:27] App Info: reading encrypted user settings...
[2016.07.24 21:05:27] App Info: reading encrypted mtp data...
[2016.07.24 21:05:27] Map read time: 17
[2016.07.24 21:05:28] Getting difference! no updates timer: 0, remains: -1
[2016.07.24 21:20:03] Skipping message, because it is already in blocks!
[2016.07.25 00:33:58] Getting difference! no updates timer: 0, remains: -1
[2016.07.25 00:33:58] Getting difference for 97303, 1469388164
